<svg width="100" height="80" viewBox="0 0 100 80" fill="none" xmlns="http://www.w3.org/2000/svg">
<g clip-path="url(#clip0)">
<path fill-rule="evenodd" clip-rule="evenodd" d="M13.1011 14.5396L68.1377 1.83348C76.169 -0.0211445 84.2565 5.03263 86.1103 13.0639L98.8165 68.1006C99.7976 72.3501 98.8442 76.6151 96.5389 79.965H12.8264L1.87062 32.5114C0.0168062 24.481 5.07058 16.3934 13.1011 14.5396Z" fill="#F07C00"/>
<path fill-rule="evenodd" clip-rule="evenodd" d="M30.8742 60.6503H26.3387V50.7643H17.0867V60.6503H12.552V37.8219H17.0867V46.7357H26.3387V37.8219H30.8742V60.6503Z" fill="white"/>
<path fill-rule="evenodd" clip-rule="evenodd" d="M39.8626 38.6848C39.8626 39.0605 39.7917 39.4125 39.6393 39.7409C39.4926 40.0693 39.2938 40.3569 39.0412 40.603C38.7886 40.8499 38.4896 41.043 38.1432 41.184C37.8034 41.3307 37.4392 41.4008 37.0644 41.4008C36.6944 41.4008 36.3481 41.3307 36.0197 41.184C35.697 41.043 35.4094 40.8499 35.1633 40.603C34.9164 40.3569 34.7233 40.0693 34.5766 39.7409C34.4356 39.4125 34.3647 39.0605 34.3647 38.6848C34.3647 38.3035 34.4356 37.9514 34.5766 37.6174C34.7233 37.2881 34.9164 36.9948 35.1633 36.7487C35.4094 36.5026 35.697 36.3087 36.0197 36.1677C36.3481 36.021 36.6944 35.951 37.0644 35.951C37.4392 35.951 37.8034 36.021 38.1432 36.1677C38.4896 36.3087 38.7886 36.5026 39.0412 36.7487C39.2938 36.9948 39.4926 37.2881 39.6393 37.6174C39.7917 37.9514 39.8626 38.3035 39.8626 38.6848Z" fill="#FFEC00"/>
<path fill-rule="evenodd" clip-rule="evenodd" d="M43.5757 66.1824V60.9061L43.3475 60.9086C42.1676 60.9086 41.0708 60.7146 40.0498 60.3219C39.8012 60.2273 39.5608 60.1214 39.3286 60.0041C36.6192 58.6098 35.2551 55.7578 34.9634 51.7446V44.1419H39.3286C39.3286 46.272 39.4557 49.9038 39.3286 52.7412C39.3286 53.3931 39.5282 54.2854 39.7564 54.8949C39.9854 55.4987 40.2901 55.9974 40.6658 56.3853C41.0471 56.778 41.4937 57.0657 42.0095 57.2531C42.4837 57.4315 43.0028 57.5244 43.5757 57.5383V44.1419H46.2574C46.5328 44.1419 46.7691 44.2047 46.9549 44.3294C47.1439 44.4565 47.2605 44.6537 47.3248 44.9161L47.6883 46.4122C48.0289 46.0308 48.3931 45.6788 48.768 45.3618C49.1493 45.0399 49.5551 44.7645 50 44.5347C50.4401 44.3074 50.9151 44.1273 51.4261 44.001C51.9353 43.8755 52.4878 43.8127 53.0802 43.8127C53.9896 43.8127 54.8159 44.0091 55.5737 44.3994C56.3291 44.7889 56.9859 45.352 57.5326 46.0895C59.0784 48.1723 59.2691 49.3424 59.2691 51.985C59.2691 53.2578 59.0996 54.4369 58.7533 55.528C58.4127 56.6134 57.9262 57.5578 57.2922 58.3564C56.6648 59.1542 55.9021 59.7759 55.0163 60.2282C54.1298 60.6796 53.1332 60.9086 52.0356 60.9086C51.1091 60.9086 50.3227 60.7676 49.6774 60.4856C49.0377 60.2037 48.4567 59.8232 47.9409 59.3416V66.1824H43.5757ZM51.5898 46.7104C50.7742 46.7104 50.088 46.875 49.525 47.1977C48.9619 47.5261 48.4331 48.0011 47.9409 48.6172V56.1791C48.3809 56.7071 48.8503 57.0771 49.3604 57.2881C49.8705 57.5 50.4164 57.6051 51.0031 57.6051C51.5662 57.6051 52.0771 57.4935 52.5408 57.271C53.0036 57.0477 53.4029 56.7071 53.737 56.25C54.0654 55.792 54.3237 55.2119 54.4997 54.5078C54.6757 53.7973 54.7694 52.9588 54.7694 51.985C54.7694 51.0226 54.6937 50.207 54.547 49.538C54.3938 48.8698 54.1827 48.3238 53.9073 47.9074C53.6319 47.4845 53.3027 47.1855 52.9099 46.9923C52.5229 46.8041 52.0828 46.7104 51.5898 46.7104Z" fill="white"/>
<path fill-rule="evenodd" clip-rule="evenodd" d="M69.6191 43.8657C70.6988 43.8657 71.6913 44.0401 72.5933 44.388C73.497 44.7368 74.276 45.2469 74.9287 45.902C75.583 46.5596 76.094 46.818 76.4598 47.7779C76.8265 48.741 77.0115 49.8378 77.0115 51.0756C77.0115 51.4097 76.9936 51.6794 76.9585 51.8905C76.9235 52.1023 76.8705 52.2726 76.7939 52.4014C76.7238 52.5244 76.6179 52.6124 76.4892 52.6654C76.3539 52.7184 76.1901 52.7412 75.9962 52.7412H65.7884C65.8585 53.5691 66.0051 54.2845 66.2341 54.8949C66.4623 55.4987 66.7679 55.9974 67.1435 56.3853C67.5249 56.778 67.9706 57.0657 68.4864 57.2531C69.003 57.447 69.5718 57.5407 70.2058 57.5407C70.8332 57.5407 71.3792 57.4641 71.8428 57.3061C72.3122 57.1537 72.7164 56.9834 73.0684 56.8074C73.4147 56.6313 73.726 56.4667 74.0014 56.3087C74.2776 56.1563 74.5473 56.0797 74.8114 56.0797C75.134 56.0797 75.3924 56.2084 75.6034 56.4724L76.8591 58.0859C76.3832 58.6375 75.8674 59.0955 75.2921 59.4532C74.7168 59.8166 74.1244 60.1043 73.5149 60.3153C72.8989 60.5272 72.2771 60.6796 71.6489 60.7733C71.0149 60.8613 70.4111 60.9086 69.8244 60.9086C62.0074 60.9086 59.7723 51.9174 63.629 46.3478C64.2198 45.4946 65.1903 44.9796 66.1983 44.5347C67.2071 44.089 68.3462 43.8657 69.6191 43.8657ZM69.7071 46.417C68.5923 46.417 67.7245 46.7397 67.0905 47.3908C66.4623 48.0362 66.0581 48.9513 65.8699 50.1312H73.092C73.092 49.6382 73.0276 49.1688 72.8924 48.7231C72.7636 48.2774 72.5583 47.8781 72.2771 47.5375C71.9952 47.192 71.6432 46.9214 71.2211 46.7161C70.7925 46.5173 70.2881 46.417 69.7071 46.417Z" fill="white"/>
<path fill-rule="evenodd" clip-rule="evenodd" d="M79.9679 60.6503V44.1419H82.5315C82.9772 44.1419 83.2876 44.2259 83.4637 44.3823C83.6437 44.5404 83.7709 44.8232 83.8222 45.2208L84.0447 46.9573C84.5613 45.9835 85.1618 45.2159 85.8455 44.6578C86.5324 44.0971 87.3302 43.8127 88.2339 43.8127C88.9786 43.8127 89.5947 43.9896 90.0763 44.3473L89.7471 47.0567C89.7234 47.2596 89.6558 47.4063 89.5417 47.491C89.4293 47.5742 89.272 47.6198 89.0781 47.6198C88.9086 47.6198 88.6617 47.5962 88.3398 47.5432C88.0171 47.491 87.7238 47.4674 87.4475 47.4674C87.0425 47.4674 86.6848 47.5261 86.3743 47.6377C86.0574 47.755 85.7754 47.9254 85.5293 48.1478C85.2824 48.3711 85.06 48.6408 84.866 48.9635C84.6729 49.2805 84.4961 49.6496 84.3323 50.0603V60.6503H79.9679Z" fill="white"/>
</g>
<defs>
<clipPath id="clip0">
<rect width="99.7966" height="79.9791" fill="white"/>
</clipPath>
</defs>
</svg>
