<svg width="160" height="80" viewBox="0 0 160 80" fill="none" xmlns="http://www.w3.org/2000/svg">
<rect width="160" height="80" fill="#231F20"/>
<path d="M37.595 27.7914C38.9187 27.3574 40.3349 27.1217 41.8084 27.1217C48.2391 27.1217 53.6031 31.6028 54.8337 37.5556L63.9464 35.7328C61.8555 25.6157 52.7395 18 41.8084 18C39.3057 18 36.8967 18.4 34.648 19.1367L37.595 27.7914Z" fill="#FECA2F"/>
<path d="M26.7514 57.1112L32.2077 50.0661C29.7722 47.6026 28.235 44.0061 28.235 39.9972C28.235 35.9913 29.7707 32.3948 32.2055 29.9333L26.7464 22.8889C22.6079 27.0743 20 33.1879 20 39.9972C20 46.81 22.6118 52.9258 26.7514 57.1112" fill="#1BA7DE"/>
<path d="M54.8365 42.4444C53.6018 48.3962 48.2411 52.8717 41.8161 52.8717C40.342 52.8717 38.923 52.6354 37.5992 52.2L34.648 60.8591C36.9002 61.5995 39.3099 62 41.8161 62C52.7372 62 61.8471 54.3895 63.9464 44.2763L54.8365 42.4444Z" fill="#EC412A"/>
<path fill-rule="evenodd" clip-rule="evenodd" d="M107.791 22.8889V47.9262L112.284 49.7271L110.158 54.6653L105.715 52.8793C104.716 52.4604 104.04 51.8221 103.526 51.1012C103.033 50.3636 102.667 49.3555 102.667 47.9951V22.8889H107.791ZM73.7145 41.4975C73.8261 34.3376 79.9235 28.6222 87.3223 28.7319C93.6021 28.8271 98.8052 33.0805 100.172 38.7376L75.8839 48.7756C74.4731 46.69 73.6712 44.1809 73.7145 41.4975ZM79.2721 42.5012C79.2389 42.2008 79.2153 41.8928 79.2242 41.582C79.2939 37.3636 82.8837 33.9976 87.2428 34.0675C89.6155 34.0981 91.7224 35.1488 93.1467 36.775L79.2721 42.5012ZM92.6331 47.1495C91.1693 48.5264 89.1842 49.3653 86.9924 49.3352C85.4902 49.3109 84.0981 48.876 82.9146 48.1513L79.9805 52.6721C81.99 53.9003 84.3593 54.627 86.9136 54.6653C90.6317 54.7187 94.0206 53.3064 96.4848 50.9743L92.6331 47.1495ZM126.491 34.0672C125.615 34.0672 124.774 34.204 123.988 34.4591L122.24 29.3932C123.574 28.9623 125.003 28.7283 126.491 28.7283C132.98 28.7283 138.393 33.1858 139.635 39.1071L134.223 40.1739C133.494 36.6891 130.309 34.0672 126.491 34.0672ZM117.605 51.4115L121.262 47.4127C119.629 46.0145 118.601 43.9725 118.601 41.6963C118.601 39.4225 119.629 37.3815 121.261 35.9843L117.601 31.9855C114.827 34.3614 113.079 37.8331 113.079 41.6963C113.079 45.5644 114.828 49.0348 117.605 51.4115ZM126.491 49.3282C130.306 49.3282 133.49 46.7086 134.224 43.2288L139.634 44.3003C138.387 50.2152 132.975 54.6666 126.491 54.6666C125.003 54.6666 123.572 54.4318 122.234 53.9989L123.987 48.9348C124.774 49.1891 125.616 49.3282 126.491 49.3282Z" fill="white"/>
</svg>
