<?xml version="1.0" standalone="no"?>
<!DOCTYPE svg PUBLIC "-//W3C//DTD SVG 20010904//EN"
 "http://www.w3.org/TR/2001/REC-SVG-20010904/DTD/svg10.dtd">
<svg version="1.0" xmlns="http://www.w3.org/2000/svg"
 width="1980.000000pt" height="1980.000000pt" viewBox="0 0 1980.000000 1980.000000"
 preserveAspectRatio="xMidYMid meet">
<metadata>
Created by potrace 1.11, written by Peter Selinger 2001-2013
</metadata>
<g transform="translate(0.000000,1980.000000) scale(0.100000,-0.100000)"
fill="#000000" stroke="none">
<path d="M9488 19795 c-1 -2 -61 -6 -133 -10 -71 -3 -150 -8 -175 -10 -108 -8
-213 -16 -243 -20 -18 -2 -65 -7 -106 -11 -41 -3 -82 -7 -90 -9 -9 -2 -45 -6
-81 -10 -36 -4 -74 -9 -85 -11 -10 -2 -35 -6 -55 -8 -93 -13 -117 -17 -135
-20 -11 -2 -40 -7 -65 -10 -25 -3 -55 -8 -66 -10 -12 -2 -37 -7 -55 -10 -19
-3 -45 -8 -59 -11 -14 -2 -36 -7 -50 -10 -14 -2 -38 -7 -55 -10 -33 -5 -55
-10 -130 -25 -27 -6 -60 -12 -73 -15 -13 -2 -31 -6 -40 -9 -9 -3 -30 -8 -47
-11 -47 -8 -59 -11 -255 -60 -102 -25 -192 -48 -200 -50 -8 -1 -55 -15 -105
-30 -115 -34 -186 -55 -205 -60 -77 -19 -599 -203 -725 -256 -16 -7 -32 -13
-35 -14 -13 -5 -47 -18 -65 -25 -11 -5 -54 -23 -95 -40 -41 -17 -84 -35 -95
-40 -247 -110 -317 -143 -530 -251 -231 -117 -265 -135 -470 -252 -202 -115
-246 -143 -520 -322 -304 -199 -718 -510 -965 -724 -180 -156 -500 -450 -574
-528 -6 -6 -54 -56 -106 -110 -521 -537 -987 -1139 -1368 -1767 -84 -139 -103
-171 -150 -256 -13 -25 -32 -58 -42 -75 -44 -74 -91 -165 -196 -375 -117 -234
-136 -274 -229 -485 -7 -16 -36 -86 -64 -155 -29 -69 -56 -134 -61 -145 -5
-11 -22 -54 -36 -95 -15 -41 -31 -86 -37 -100 -68 -169 -265 -789 -292 -920
-2 -8 -12 -49 -23 -90 -12 -41 -23 -86 -26 -100 -3 -14 -7 -35 -10 -47 -4 -13
-8 -31 -10 -40 -12 -49 -68 -311 -70 -328 -2 -11 -6 -33 -9 -50 -4 -16 -9 -43
-12 -60 -3 -16 -7 -40 -9 -51 -5 -26 -16 -90 -21 -124 -2 -14 -6 -40 -9 -57
-9 -51 -14 -84 -21 -133 -3 -25 -8 -56 -10 -70 -4 -24 -14 -100 -20 -150 -1
-14 -6 -52 -10 -85 -9 -76 -16 -147 -31 -325 -22 -255 -28 -436 -28 -815 -1
-325 4 -503 19 -700 13 -181 18 -244 29 -335 3 -30 8 -80 11 -110 3 -30 8 -66
10 -80 2 -14 7 -50 10 -80 3 -30 8 -62 10 -70 2 -8 7 -37 10 -65 3 -27 7 -61
10 -75 3 -13 7 -42 10 -65 3 -22 8 -47 10 -55 2 -8 7 -33 10 -55 3 -23 8 -52
10 -65 6 -30 13 -68 20 -112 3 -18 8 -40 10 -48 2 -8 7 -31 10 -50 3 -19 8
-42 10 -50 2 -8 7 -31 10 -50 3 -19 8 -43 11 -52 3 -9 6 -25 8 -35 10 -46 69
-290 97 -393 16 -63 32 -122 34 -130 1 -8 12 -44 23 -80 11 -36 34 -112 52
-170 50 -162 161 -490 187 -550 3 -8 7 -17 8 -20 10 -29 48 -126 66 -170 66
-161 131 -313 154 -365 15 -33 36 -80 47 -105 32 -72 231 -475 237 -480 3 -3
17 -27 31 -55 14 -27 49 -93 78 -145 30 -52 64 -113 77 -135 52 -93 185 -310
273 -445 734 -1129 1693 -2097 2817 -2846 157 -104 400 -257 460 -290 11 -6
67 -38 125 -71 175 -102 245 -139 495 -262 325 -161 459 -221 715 -322 69 -28
134 -54 145 -58 35 -15 224 -84 320 -116 28 -9 57 -20 65 -25 9 -4 31 -11 50
-15 19 -4 41 -12 48 -17 6 -6 12 -8 12 -4 0 3 17 -1 38 -8 70 -28 289 -91 542
-158 25 -6 50 -13 55 -14 10 -3 36 -9 78 -20 12 -3 33 -7 47 -10 14 -3 43 -10
65 -16 42 -11 62 -15 110 -24 17 -2 46 -9 65 -14 19 -5 51 -12 70 -15 19 -3
67 -12 105 -20 39 -8 84 -17 100 -19 17 -3 44 -7 60 -10 17 -3 46 -8 65 -11
19 -3 46 -7 60 -10 31 -6 71 -12 130 -20 25 -3 56 -8 70 -10 14 -2 43 -6 65
-9 22 -3 59 -8 83 -11 47 -7 80 -10 182 -21 36 -3 79 -8 95 -10 17 -1 64 -6
105 -9 41 -3 94 -8 118 -10 217 -21 1039 -28 1302 -11 195 12 325 22 408 31
23 3 61 7 85 10 80 9 142 15 192 21 28 2 61 7 75 10 14 2 39 6 55 8 74 10 132
19 150 22 11 2 38 6 60 9 22 3 51 7 65 10 14 3 40 8 59 11 18 3 41 7 50 9 9 1
54 10 101 19 47 9 94 18 105 20 47 10 181 38 195 41 21 5 120 28 168 39 9 3
46 12 82 20 36 9 115 30 175 46 61 17 120 33 132 36 12 2 35 9 50 15 26 10 35
13 81 23 9 2 44 13 77 24 33 11 112 36 175 56 63 21 144 48 180 61 131 48 308
115 336 126 16 6 38 15 49 20 334 134 762 333 994 461 31 17 81 44 111 61 59
32 78 43 180 102 36 21 80 46 97 56 18 10 63 37 100 60 580 358 1096 749 1591
1208 163 151 539 534 625 636 13 17 41 47 61 68 170 180 533 648 758 977 103
150 358 553 358 565 0 2 21 38 46 81 124 210 322 598 444 869 12 28 33 74 46
103 13 29 24 55 24 57 0 3 9 27 21 53 35 78 38 85 60 142 45 114 58 149 109
285 45 122 148 422 154 450 5 22 39 132 52 168 8 20 12 37 9 37 -2 0 0 12 6
27 9 24 31 100 44 153 2 8 20 78 40 155 35 138 40 158 50 213 3 15 8 35 11 44
3 10 7 28 10 40 8 45 14 74 34 173 23 111 37 185 45 230 2 17 7 39 9 50 2 11
7 40 10 65 3 25 8 54 10 65 3 17 12 76 21 140 2 11 6 45 10 75 3 30 8 66 10
80 3 14 7 50 10 80 4 30 8 71 10 90 4 34 12 112 20 199 4 43 14 177 20 271 17
262 22 698 10 980 -7 177 -8 208 -20 360 -8 114 -22 271 -29 335 -2 17 -7 57
-10 89 -3 33 -8 71 -10 85 -3 14 -8 51 -12 81 -12 95 -21 162 -30 215 -5 30
-9 52 -18 115 -3 19 -8 46 -11 60 -2 14 -7 36 -10 50 -2 14 -7 39 -10 55 -3
17 -7 40 -9 51 -2 12 -7 37 -10 55 -8 46 -14 77 -20 97 -3 9 -8 31 -11 47 -8
47 -14 75 -19 93 -3 9 -8 28 -11 42 -2 14 -8 39 -11 55 -4 17 -22 91 -41 165
-19 74 -36 140 -37 145 -2 6 -8 30 -15 55 -7 25 -15 56 -18 69 -2 13 -8 32
-14 43 -5 10 -7 18 -4 18 2 0 -1 17 -9 38 -8 20 -24 71 -37 112 -33 107 -114
350 -150 450 -17 47 -41 114 -54 150 -36 99 -190 470 -236 568 -22 48 -47 103
-56 122 -8 19 -19 42 -24 50 -5 8 -17 33 -26 55 -31 72 -175 348 -257 493 -20
35 -36 66 -36 68 0 2 -55 95 -122 207 -381 636 -790 1176 -1303 1725 -59 63
-386 389 -431 429 -17 15 -76 69 -130 118 -140 126 -215 191 -324 282 -194
160 -484 383 -499 383 -5 0 -11 4 -13 8 -6 15 -281 205 -513 354 -168 108
-528 318 -545 318 -4 0 -13 7 -20 15 -7 8 -21 15 -30 15 -10 0 -20 4 -22 9 -3
8 -480 248 -568 285 -25 11 -72 31 -105 46 -33 15 -100 44 -150 65 -49 21
-103 43 -120 50 -63 28 -347 135 -435 165 -14 4 -34 12 -45 16 -11 4 -22 8
-25 9 -3 1 -12 5 -20 8 -8 3 -53 18 -100 32 -47 15 -94 30 -105 35 -11 4 -54
18 -95 29 -41 12 -120 35 -175 51 -94 27 -238 67 -277 76 -10 2 -27 6 -38 9
-11 3 -29 7 -40 10 -11 3 -28 7 -37 9 -15 4 -68 16 -178 41 -31 7 -65 15 -120
26 -27 6 -59 12 -70 15 -36 7 -69 14 -105 20 -59 11 -73 14 -135 25 -33 6 -71
12 -85 14 -14 2 -38 6 -55 9 -50 9 -88 15 -135 21 -25 3 -56 8 -70 10 -45 7
-145 20 -238 30 -35 3 -72 8 -82 10 -11 2 -60 7 -110 10 -51 4 -99 8 -109 10
-9 2 -68 6 -131 10 -63 5 -133 10 -155 12 -51 5 -962 13 -967 8z m637 -1919
c66 -3 145 -8 175 -11 30 -3 82 -8 115 -10 33 -2 60 -4 60 -5 0 -1 25 -3 55
-5 30 -2 65 -6 77 -9 13 -3 50 -6 83 -8 33 -2 60 -5 60 -8 0 -3 19 -6 43 -7
41 -2 76 -6 147 -18 131 -23 280 -47 305 -50 17 -3 70 -13 120 -24 49 -10 93
-17 97 -14 5 2 8 0 8 -4 0 -5 9 -9 20 -10 11 -1 47 -9 80 -17 33 -9 64 -15 68
-14 4 1 18 -4 31 -11 19 -11 22 -11 15 1 -6 11 -5 11 8 0 9 -7 20 -12 24 -11
5 1 16 -1 24 -4 34 -13 94 -26 102 -21 4 3 8 1 8 -5 0 -5 8 -10 18 -10 9 0 58
-12 107 -26 50 -15 95 -28 100 -30 6 -1 17 -4 25 -7 18 -7 103 -33 110 -34 3
0 12 -4 20 -7 8 -4 24 -8 35 -10 11 -1 25 -5 30 -8 11 -7 79 -30 98 -33 7 -1
29 -10 51 -19 21 -9 42 -14 47 -11 5 3 9 0 9 -5 0 -6 3 -10 8 -9 4 0 14 -2 22
-5 63 -26 237 -89 248 -90 6 0 12 -4 12 -9 0 -4 3 -7 8 -6 4 1 30 -9 57 -22
28 -13 53 -24 56 -24 4 -1 24 -19 44 -41 21 -22 34 -33 30 -25 -5 9 -4 12 1 7
5 -5 9 -12 9 -15 1 -10 38 -66 50 -74 5 -4 6 -8 2 -8 -4 0 -3 -9 3 -20 32 -60
32 -212 0 -302 -13 -38 -27 -68 -32 -68 -4 0 -8 -5 -8 -11 0 -11 -81 -93 -96
-96 -5 -1 -28 -9 -52 -18 -54 -19 -150 -13 -212 12 -75 32 -187 75 -200 78 -8
2 -37 13 -64 24 -27 12 -56 23 -65 25 -9 2 -23 6 -31 9 -46 20 -100 35 -100
29 0 -4 -4 -1 -9 6 -4 7 -19 14 -32 16 -13 2 -31 6 -39 10 -48 20 -134 45
-138 41 -3 -3 -11 0 -17 5 -7 6 -46 19 -86 30 -138 38 -374 99 -399 104 -14 3
-43 10 -64 15 -22 5 -44 8 -48 5 -4 -3 -8 -1 -8 3 0 8 -26 14 -72 16 -10 1
-18 4 -18 8 0 3 -8 6 -17 6 -10 -1 -45 5 -78 12 -33 8 -76 16 -95 18 -68 9
-75 11 -92 18 -10 4 -25 5 -33 1 -8 -3 -15 -2 -15 2 0 5 -12 9 -27 10 -16 0
-44 3 -63 6 -71 11 -136 19 -162 20 -16 1 -28 3 -28 6 0 3 -15 5 -32 4 -18 0
-37 2 -43 5 -5 2 -18 6 -30 7 -11 1 -58 5 -105 9 -47 4 -105 9 -130 11 -82 7
-223 14 -395 19 -175 6 -187 7 -242 24 -18 5 -33 7 -33 3 0 -4 -4 -2 -8 4 -4
6 -22 19 -39 28 -18 9 -33 21 -33 26 0 6 -7 10 -15 10 -8 0 -15 5 -15 11 0 6
-6 16 -12 24 -24 24 -43 51 -47 66 -2 8 -12 36 -21 63 -41 121 6 309 95 376
18 14 31 30 27 35 -3 6 -2 7 3 3 4 -4 14 -3 21 3 8 6 38 19 69 28 57 18 157
19 460 7z m4785 -1887 c19 -6 45 -18 58 -25 12 -8 22 -11 22 -7 0 4 7 -2 15
-13 8 -10 15 -16 15 -12 0 4 20 -12 44 -35 119 -113 145 -135 150 -130 3 4 6
2 6 -3 0 -6 17 -28 37 -50 20 -21 33 -33 28 -25 -5 10 -4 12 3 7 7 -4 12 -14
12 -22 0 -8 4 -14 10 -14 5 0 22 -13 37 -29 156 -163 186 -194 179 -182 -6 10
-5 12 2 7 7 -4 12 -12 12 -18 0 -5 22 -33 49 -62 58 -60 118 -126 181 -198 25
-28 55 -62 67 -75 12 -13 19 -23 15 -23 -4 -1 2 -8 13 -18 12 -9 67 -75 124
-147 57 -71 109 -135 117 -141 8 -6 14 -15 14 -19 0 -10 56 -88 87 -121 13
-14 22 -27 22 -30 -1 -3 12 -21 27 -39 16 -18 30 -39 32 -46 2 -8 7 -16 11
-19 4 -3 23 -27 41 -55 19 -27 38 -54 43 -60 17 -21 97 -150 97 -158 0 -4 5
-5 10 -2 6 4 9 3 8 -2 -3 -9 41 -85 55 -94 5 -3 9 -10 9 -15 1 -12 30 -57 43
-66 6 -5 6 -8 0 -8 -5 0 -1 -7 9 -15 11 -8 16 -15 12 -15 -7 0 30 -68 44 -80
3 -3 14 -22 25 -42 11 -21 23 -38 28 -38 4 0 6 -4 2 -9 -3 -5 2 -16 10 -25 9
-8 14 -17 13 -18 -2 -2 8 -21 21 -43 14 -22 25 -42 26 -45 5 -20 30 -60 37
-60 4 0 7 -3 6 -7 -3 -12 36 -93 44 -93 5 0 8 -7 8 -15 0 -17 20 -56 33 -66 5
-3 8 -9 7 -13 -2 -11 24 -66 32 -66 5 0 8 -7 8 -15 0 -14 18 -53 30 -65 3 -3
7 -14 8 -25 2 -11 7 -22 12 -25 4 -3 13 -22 21 -42 7 -21 16 -38 19 -38 4 0 7
-6 7 -12 0 -7 15 -44 33 -83 18 -38 33 -73 32 -77 -1 -5 3 -8 9 -8 5 0 7 -4 4
-10 -3 -5 1 -22 9 -37 17 -30 37 -80 42 -102 1 -8 6 -17 11 -20 4 -3 9 -13 11
-21 3 -18 70 -198 81 -220 4 -8 36 -103 70 -210 35 -107 65 -202 68 -210 4 -8
8 -26 10 -40 2 -13 9 -30 15 -37 6 -8 8 -16 5 -20 -4 -3 -2 -13 3 -22 7 -13
60 -205 75 -271 1 -8 9 -35 16 -60 7 -25 12 -48 11 -51 -1 -4 3 -22 9 -40 6
-19 12 -45 14 -59 8 -49 13 -75 15 -75 1 0 3 -11 6 -25 2 -14 10 -56 18 -95 8
-38 19 -99 26 -135 6 -36 14 -76 17 -90 3 -14 6 -40 7 -57 0 -18 3 -33 6 -33
3 0 6 -8 7 -17 1 -23 11 -110 23 -193 22 -158 39 -313 45 -415 2 -33 4 -60 5
-60 4 0 20 -319 24 -455 2 -95 -4 -143 -24 -196 -6 -16 -11 -31 -10 -33 1 -2
-5 -8 -14 -13 -9 -5 -16 -13 -16 -18 0 -10 -59 -70 -65 -67 -2 1 -13 -5 -23
-14 -17 -15 -72 -37 -112 -46 -8 -2 -49 -4 -90 -4 -84 -1 -170 26 -219 67 -16
13 -35 24 -42 24 -7 0 -10 3 -6 6 3 3 -6 17 -20 30 -14 13 -22 24 -17 24 5 0
1 7 -9 14 -10 8 -18 18 -18 23 0 4 -7 31 -15 60 -9 31 -17 112 -20 205 -5 176
-12 313 -14 313 -1 0 -3 23 -5 50 -9 114 -15 182 -19 211 -3 17 -7 64 -11 104
-4 41 -8 77 -11 81 -2 4 -6 29 -9 56 -5 62 -14 120 -31 213 -8 41 -16 95 -19
119 -3 24 -8 48 -11 53 -3 5 -7 23 -9 41 -8 64 -69 334 -115 502 -37 134 -42
156 -43 173 0 6 -5 12 -10 12 -6 0 -8 3 -4 6 3 3 -3 30 -13 60 -11 30 -16 54
-13 54 3 0 -2 11 -11 25 -9 14 -14 25 -11 25 7 0 -112 339 -160 455 -5 11 -9
22 -10 25 -1 3 -6 16 -12 30 -6 14 -21 49 -32 79 -12 30 -27 63 -34 75 -6 12
-12 23 -12 26 -2 19 -49 120 -56 120 -5 0 -8 3 -7 8 4 13 -26 82 -36 82 -5 0
-7 3 -3 6 7 8 -41 106 -57 116 -6 4 -7 8 -3 8 4 0 -4 20 -17 45 -14 25 -22 45
-18 45 4 0 2 4 -3 8 -6 4 -20 28 -33 54 -13 26 -27 50 -33 53 -5 4 -7 11 -4
16 4 5 -1 12 -9 15 -9 3 -13 10 -10 15 3 5 0 9 -6 9 -6 0 -9 4 -5 9 3 5 -3 17
-12 27 -10 10 -16 18 -14 18 7 1 -51 100 -64 108 -5 4 -7 8 -3 8 9 0 -112 202
-127 212 -5 4 -10 11 -11 15 -2 20 -28 62 -35 57 -5 -3 -9 4 -9 15 0 11 -6 24
-14 28 -8 4 -15 11 -15 16 -1 11 -103 161 -113 165 -4 2 -8 9 -8 16 0 7 -8 21
-18 32 -10 10 -34 43 -53 71 -20 29 -39 50 -44 45 -5 -4 -6 -2 -3 3 3 6 -10
30 -29 55 -18 25 -41 57 -51 72 -9 16 -23 28 -30 28 -7 0 -11 4 -7 9 3 5 -7
19 -21 30 -15 12 -23 21 -18 21 5 0 -2 10 -16 21 -14 11 -18 18 -10 14 8 -4
-2 9 -22 29 -21 20 -35 36 -31 36 4 0 -7 15 -24 33 -16 17 -37 43 -46 57 -10
13 -17 20 -17 15 -1 -6 -6 0 -13 12 -11 20 -83 103 -172 198 -22 24 -55 60
-72 80 -18 20 -33 34 -33 29 0 -4 -13 11 -29 32 -24 33 -165 172 -418 411 -82
78 -116 146 -119 236 -1 37 2 70 7 73 5 3 9 16 9 28 0 13 11 40 25 60 13 20
21 36 18 36 -4 0 20 25 52 56 53 50 126 94 154 94 6 0 11 5 11 11 0 5 4 8 8 5
5 -3 22 -2 38 3 35 9 107 5 154 -10z m-7273 -2784 c47 -7 56 -10 108 -35 28
-13 53 -22 58 -22 4 1 7 -2 7 -8 0 -5 6 -10 14 -10 8 0 16 -3 18 -7 2 -5 26
-20 55 -34 29 -15 49 -30 45 -34 -4 -5 1 -5 11 -2 9 4 17 2 17 -3 0 -5 19 -19
43 -30 48 -24 100 -53 107 -60 5 -5 75 -43 117 -64 13 -6 23 -14 23 -18 0 -5
5 -8 10 -8 6 0 28 -11 49 -24 21 -14 42 -22 45 -19 3 4 6 1 6 -5 0 -7 7 -12
15 -12 8 0 15 -4 15 -8 0 -4 12 -13 28 -19 28 -12 112 -60 157 -89 14 -9 25
-14 25 -10 0 3 9 -3 20 -14 11 -11 27 -20 35 -20 8 0 15 -4 15 -9 0 -7 18 -16
50 -25 3 0 19 -11 37 -24 17 -12 36 -22 42 -22 6 0 11 -4 11 -9 0 -7 26 -20
52 -25 4 0 13 -7 20 -13 6 -7 18 -13 25 -13 7 0 13 -4 13 -8 0 -10 50 -37 63
-34 4 1 7 -3 7 -8 0 -6 5 -10 11 -10 6 0 24 -9 40 -21 16 -11 29 -18 29 -15 0
3 8 -1 18 -9 9 -8 21 -15 26 -14 5 0 12 -4 15 -9 3 -6 13 -12 21 -14 8 -2 23
-11 34 -20 10 -10 23 -15 28 -12 4 3 8 1 8 -4 0 -4 19 -18 43 -30 23 -13 65
-36 92 -53 28 -16 58 -32 68 -36 9 -3 17 -9 17 -13 0 -6 37 -21 49 -19 2 0 7
-4 10 -9 5 -9 104 -65 168 -96 13 -6 23 -14 23 -18 0 -5 7 -8 15 -8 8 0 15 -4
15 -10 0 -5 5 -10 11 -10 6 0 37 -16 70 -35 32 -19 59 -32 59 -29 0 2 10 -4
22 -15 11 -11 25 -18 30 -15 4 3 8 1 8 -4 0 -4 20 -19 45 -31 24 -12 47 -26
50 -32 4 -5 11 -7 16 -4 5 4 9 1 9 -5 0 -6 5 -8 10 -5 6 3 10 1 10 -5 0 -6 5
-8 10 -5 6 3 10 2 10 -3 0 -5 15 -17 33 -26 17 -8 45 -24 61 -35 17 -11 33
-18 38 -15 4 3 8 1 8 -4 0 -9 36 -29 54 -30 5 0 12 -5 15 -11 7 -10 81 -54
151 -89 19 -9 37 -20 40 -23 8 -10 75 -43 83 -41 4 1 7 -2 7 -8 0 -5 7 -10 15
-10 8 0 15 -4 15 -8 0 -9 91 -57 103 -54 4 1 7 -2 7 -7 0 -5 21 -19 48 -32 26
-12 49 -26 52 -29 3 -4 20 -13 38 -21 17 -8 32 -17 32 -20 0 -7 40 -22 53 -20
4 1 7 -3 7 -8 0 -5 24 -21 53 -36 28 -15 59 -33 67 -40 18 -14 52 -29 63 -27
4 1 7 -3 7 -8 0 -6 5 -10 11 -10 6 0 17 -7 26 -15 8 -8 18 -13 23 -10 4 3 11
-2 14 -11 3 -8 10 -12 16 -9 5 3 10 3 10 -2 0 -4 10 -13 23 -18 32 -15 111
-59 117 -65 3 -3 23 -14 45 -25 22 -11 42 -23 45 -26 3 -3 21 -14 40 -24 19
-9 43 -24 53 -33 9 -8 17 -12 17 -8 0 4 10 -2 22 -14 12 -11 27 -19 32 -17 6
2 18 -4 28 -12 10 -9 21 -14 25 -13 3 2 9 0 12 -6 3 -5 38 -26 76 -47 39 -21
78 -45 88 -53 9 -8 17 -11 17 -7 0 4 8 1 18 -7 22 -19 137 -84 137 -78 0 3 11
-5 24 -17 13 -12 27 -20 31 -18 4 3 13 -2 20 -10 7 -8 19 -15 26 -15 8 0 14
-4 14 -8 0 -5 16 -14 35 -22 19 -8 35 -17 35 -20 0 -3 16 -12 35 -20 19 -8 35
-17 35 -22 0 -4 9 -8 19 -8 11 0 21 -4 23 -8 4 -10 274 -164 284 -162 4 1 10
-2 13 -7 3 -5 26 -20 51 -34 25 -13 51 -30 58 -36 12 -12 19 -14 37 -13 3 1
12 -6 20 -14 8 -8 53 -35 99 -60 47 -26 88 -51 91 -56 3 -6 15 -10 26 -10 10
0 19 -5 19 -12 0 -6 3 -9 6 -5 3 3 14 -2 25 -11 11 -9 22 -16 24 -14 3 1 13
-6 24 -15 10 -10 34 -31 54 -48 19 -16 33 -33 31 -37 -3 -5 0 -8 5 -8 6 0 11
-7 11 -15 0 -8 5 -15 11 -15 5 0 8 -4 5 -8 -3 -5 1 -20 8 -33 12 -23 14 -128
4 -169 -7 -31 -33 -85 -45 -98 -7 -8 -18 -23 -24 -34 -6 -11 -13 -17 -16 -14
-3 2 -19 -10 -35 -27 -17 -18 -27 -25 -23 -17 8 15 -32 -15 -46 -33 -3 -5 -8
-8 -10 -7 -8 4 -59 -24 -59 -32 0 -4 -3 -7 -7 -6 -13 3 -63 -24 -63 -34 0 -4
-3 -7 -7 -6 -12 2 -47 -14 -55 -26 -3 -5 -13 -11 -22 -12 -8 -1 -29 -12 -45
-23 -16 -12 -32 -21 -36 -21 -4 0 -19 -9 -35 -20 -15 -11 -30 -17 -34 -13 -3
3 -6 2 -6 -3 0 -5 -21 -21 -47 -34 -26 -14 -53 -30 -59 -36 -7 -6 -26 -17 -43
-24 -17 -7 -31 -16 -31 -21 0 -5 -3 -8 -7 -7 -15 3 -63 -22 -63 -32 0 -5 -3
-9 -7 -8 -12 2 -47 -14 -55 -26 -4 -6 -12 -12 -18 -12 -5 -1 -14 -2 -18 -3 -5
0 -19 -11 -32 -23 -14 -13 -27 -22 -30 -22 -10 2 -50 -19 -50 -28 0 -4 -3 -7
-7 -6 -13 3 -83 -35 -83 -44 0 -5 -4 -7 -9 -3 -5 3 -16 -2 -24 -10 -9 -8 -23
-15 -32 -15 -9 0 -13 -4 -10 -10 3 -5 -3 -10 -14 -10 -12 0 -21 -4 -21 -10 0
-5 -7 -10 -15 -10 -8 0 -15 -5 -15 -11 0 -5 -4 -8 -8 -5 -5 3 -20 -5 -33 -17
-13 -12 -26 -21 -29 -21 -12 3 -50 -16 -50 -26 0 -5 -3 -9 -7 -8 -12 2 -47
-14 -55 -26 -4 -6 -12 -12 -18 -12 -5 -1 -14 -2 -19 -3 -5 0 -17 -9 -27 -18
-9 -10 -24 -18 -32 -19 -8 -2 -19 -9 -23 -16 -5 -7 -9 -10 -9 -5 0 7 -47 -19
-60 -33 -3 -3 -26 -16 -52 -29 -27 -13 -48 -27 -48 -31 0 -4 -6 -7 -13 -7 -6
0 -32 -13 -57 -29 -25 -15 -48 -28 -52 -29 -4 0 -15 -7 -25 -15 -10 -9 -20
-16 -23 -16 -18 -2 -80 -38 -80 -47 0 -6 -3 -7 -7 -4 -3 4 -12 -1 -20 -11 -8
-9 -11 -11 -8 -4 8 15 -75 -36 -87 -53 -4 -5 -8 -7 -8 -2 0 4 -18 -4 -40 -18
-22 -14 -43 -25 -46 -25 -4 0 -13 -8 -21 -17 -8 -10 -11 -12 -7 -4 4 8 -14 0
-39 -17 -25 -18 -57 -36 -71 -42 -14 -5 -26 -14 -26 -20 0 -6 -4 -9 -9 -5 -5
3 -16 -1 -24 -9 -8 -8 -17 -12 -21 -9 -3 4 -6 1 -6 -6 0 -7 -4 -10 -9 -7 -5 3
-14 -1 -21 -9 -7 -8 -18 -15 -26 -15 -7 0 -18 -8 -23 -17 -6 -10 -11 -14 -11
-10 0 11 -60 -25 -60 -36 0 -4 -4 -6 -9 -2 -5 3 -16 -1 -24 -9 -8 -8 -26 -18
-41 -22 -14 -3 -26 -9 -26 -13 0 -9 -51 -35 -62 -33 -5 1 -8 -3 -8 -8 0 -6 -5
-10 -11 -10 -6 0 -30 -12 -53 -27 -23 -16 -64 -39 -91 -53 -28 -14 -55 -32
-62 -40 -7 -8 -13 -11 -13 -7 0 5 -13 -1 -29 -12 -15 -11 -40 -25 -55 -31 -14
-5 -26 -15 -26 -21 0 -7 -3 -10 -6 -6 -3 3 -20 -3 -37 -12 -85 -49 -97 -57
-97 -64 0 -5 -4 -5 -10 -2 -5 3 -10 1 -10 -6 0 -7 -3 -10 -6 -6 -3 3 -24 -5
-45 -19 -21 -13 -43 -24 -49 -24 -5 0 -10 -4 -10 -10 0 -5 -4 -10 -9 -10 -14
0 -135 -72 -139 -82 -2 -4 -7 -6 -12 -3 -5 3 -15 -2 -24 -10 -8 -9 -18 -14
-20 -13 -3 2 -15 -5 -26 -14 -11 -10 -24 -18 -29 -18 -11 0 -113 -61 -121 -72
-3 -3 -18 -10 -33 -13 -15 -4 -27 -10 -27 -15 0 -4 -18 -15 -40 -25 -22 -10
-40 -22 -40 -27 0 -4 -3 -7 -7 -6 -10 3 -125 -62 -134 -75 -3 -5 -10 -8 -15
-8 -5 1 -16 -4 -25 -11 -8 -7 -22 -14 -30 -16 -8 -2 -21 -10 -30 -18 -9 -8
-18 -12 -21 -9 -3 3 -11 -1 -18 -10 -7 -8 -18 -15 -25 -15 -7 0 -16 -7 -19
-16 -4 -9 -9 -14 -13 -10 -3 3 -17 -1 -29 -9 -13 -8 -45 -27 -71 -41 -26 -15
-63 -38 -82 -52 -19 -14 -31 -19 -26 -12 5 8 -5 4 -22 -8 -17 -12 -35 -22 -39
-22 -4 0 -15 -6 -23 -14 -9 -7 -36 -24 -61 -37 -25 -13 -47 -26 -50 -29 -3 -3
-16 -11 -30 -17 -52 -25 -135 -76 -142 -87 -4 -6 -8 -7 -8 -2 0 5 -12 -1 -27
-15 -14 -13 -22 -17 -18 -9 6 11 3 10 -12 -2 -11 -10 -25 -18 -31 -18 -7 0
-21 -9 -32 -20 -11 -11 -20 -17 -20 -14 0 3 -13 -3 -30 -13 -16 -9 -30 -21
-30 -26 0 -4 -4 -6 -8 -3 -5 3 -28 -8 -53 -25 -24 -16 -50 -29 -56 -29 -7 0
-13 -4 -13 -10 0 -5 -6 -10 -14 -10 -7 0 -19 -7 -26 -15 -7 -9 -15 -13 -18
-10 -3 2 -11 -3 -19 -13 -8 -9 -12 -12 -8 -5 3 7 -13 0 -36 -15 -23 -15 -44
-27 -48 -26 -3 1 -11 -6 -18 -15 -7 -9 -13 -11 -13 -6 0 7 -3 7 -8 0 -4 -5
-27 -21 -52 -34 -25 -14 -48 -29 -51 -33 -3 -5 -12 -11 -20 -12 -8 -2 -32 -11
-54 -21 -46 -21 -46 -21 -100 -30 -22 -3 -45 -8 -52 -10 -7 -2 -14 -1 -17 3
-2 4 -21 7 -40 7 -20 -1 -36 2 -36 7 0 5 -4 7 -9 3 -5 -3 -12 -1 -16 5 -4 6
-11 8 -16 5 -5 -4 -9 -2 -9 3 0 6 -10 12 -23 16 -29 7 -127 101 -127 122 0 8
-7 17 -15 20 -8 4 -13 9 -11 13 2 3 -1 17 -7 31 -5 14 -12 32 -14 40 -6 22
-10 6133 -4 6145 3 6 6 18 7 28 1 9 3 19 4 22 1 3 3 8 5 13 7 27 27 62 49 89
14 16 23 33 21 37 -3 3 -2 4 1 2 3 -3 19 8 34 24 15 16 31 26 34 23 3 -4 6 0
6 7 0 7 3 10 6 7 4 -3 16 0 28 8 11 8 28 15 38 15 10 0 18 4 18 8 0 5 21 9 47
11 26 1 49 4 52 6 2 3 8 2 12 -1 5 -3 21 -7 36 -9z m-5393 -3009 c19 -8 37
-12 40 -8 3 3 6 0 6 -6 0 -7 7 -12 15 -12 8 0 15 -4 15 -10 0 -5 6 -10 14 -10
14 0 76 -55 76 -69 0 -4 9 -16 20 -26 11 -10 18 -20 15 -23 -3 -3 0 -12 7 -19
7 -8 13 -22 14 -31 1 -10 5 -30 8 -47 4 -16 9 -93 11 -170 2 -77 7 -176 10
-220 3 -44 8 -107 10 -140 3 -33 6 -80 9 -105 2 -25 7 -76 10 -115 4 -38 9
-88 12 -110 4 -22 7 -53 9 -70 2 -16 4 -30 5 -30 1 0 3 -11 5 -25 1 -14 6 -52
11 -85 4 -33 8 -68 8 -77 0 -10 3 -18 7 -18 4 0 6 -8 5 -17 -2 -9 1 -35 6 -57
4 -23 11 -59 14 -81 3 -22 11 -48 16 -59 8 -14 7 -17 -3 -11 -8 5 -10 4 -5 -3
4 -7 9 -21 12 -32 2 -11 6 -30 9 -42 3 -13 8 -36 11 -53 2 -16 9 -44 13 -62 5
-17 6 -34 3 -37 -3 -3 0 -6 7 -6 7 0 10 -4 7 -8 -2 -4 6 -53 20 -107 13 -55
27 -111 29 -125 3 -14 8 -32 12 -40 3 -8 7 -24 8 -35 2 -11 8 -33 14 -50 7
-16 12 -30 11 -30 -3 0 39 -145 47 -165 9 -21 9 -21 17 -62 5 -21 12 -38 18
-38 5 0 6 -5 3 -10 -4 -6 -1 -17 5 -25 7 -8 10 -15 6 -15 -4 0 0 -13 9 -30 8
-16 15 -35 15 -43 0 -8 8 -32 17 -53 9 -22 18 -45 19 -52 1 -8 6 -21 10 -30 4
-9 8 -19 9 -22 0 -3 11 -32 24 -65 13 -33 24 -64 25 -70 2 -5 8 -21 14 -35 47
-106 82 -193 82 -205 0 -8 5 -15 10 -15 6 0 10 -9 10 -20 0 -11 4 -20 10 -20
5 0 9 -3 8 -7 -4 -13 45 -123 54 -123 4 0 7 -4 5 -8 -3 -11 65 -156 76 -160 4
-2 5 -7 2 -12 -3 -5 1 -14 8 -22 7 -7 15 -16 16 -20 18 -53 36 -86 43 -82 5 3
7 2 6 -3 -5 -14 24 -73 35 -73 6 0 7 -3 4 -7 -7 -6 29 -73 46 -84 5 -3 8 -9 7
-13 -2 -4 10 -30 26 -58 16 -27 43 -75 60 -105 17 -30 37 -59 45 -64 8 -5 11
-9 6 -9 -9 0 22 -50 43 -68 8 -8 10 -11 3 -7 -7 3 0 -12 14 -35 15 -22 31 -40
35 -40 5 0 6 -4 3 -10 -3 -5 4 -21 17 -34 13 -13 24 -28 25 -34 1 -5 17 -31
35 -57 18 -26 40 -57 48 -70 42 -64 132 -187 152 -206 13 -12 16 -19 8 -15 -8
4 -2 -4 13 -18 15 -14 25 -26 21 -26 -4 0 2 -10 13 -22 11 -13 26 -33 32 -46
7 -12 17 -20 23 -16 6 4 8 3 4 -4 -3 -6 4 -18 16 -26 12 -9 18 -16 13 -16 -6
-1 1 -10 14 -20 13 -11 20 -20 17 -20 -6 0 30 -45 74 -90 13 -14 22 -25 20
-25 -4 0 25 -36 73 -89 15 -17 42 -50 60 -73 18 -23 40 -45 50 -48 9 -4 15
-10 12 -14 -2 -4 7 -18 20 -29 14 -12 25 -26 25 -31 0 -5 9 -13 21 -16 11 -4
18 -9 15 -12 -3 -3 26 -37 65 -76 39 -38 65 -66 58 -62 -8 4 -3 -3 11 -16 14
-14 38 -38 54 -54 16 -17 26 -24 21 -16 -5 10 -4 12 3 7 7 -4 12 -11 12 -17 0
-5 32 -39 71 -76 40 -38 91 -88 115 -112 24 -24 44 -42 44 -39 0 3 30 -25 67
-61 37 -36 63 -59 59 -51 -8 15 12 -6 52 -56 22 -27 40 -62 57 -109 10 -27 13
-135 4 -135 -4 0 -6 -8 -4 -17 2 -16 -33 -90 -56 -119 -5 -6 -5 -15 -1 -19 4
-5 1 -5 -6 -1 -9 5 -15 1 -19 -13 -3 -12 -12 -21 -19 -21 -8 0 -19 -10 -24
-22 -5 -13 -9 -19 -9 -15 -1 5 -13 -1 -27 -12 -15 -12 -33 -21 -40 -21 -8 0
-14 -5 -14 -12 0 -6 -3 -9 -6 -5 -4 3 -20 -1 -37 -10 -20 -10 -58 -16 -111
-16 -96 -1 -162 25 -239 91 -27 23 -53 42 -58 42 -6 0 -7 4 -4 10 3 5 1 10 -5
10 -7 0 -21 11 -32 25 -11 14 -26 25 -34 25 -8 0 -13 3 -11 8 3 4 -1 13 -9 20
-8 7 -14 11 -14 9 0 -2 -39 36 -87 84 -49 49 -94 89 -100 89 -7 0 -12 6 -10
13 1 6 -4 11 -10 10 -7 -2 -13 4 -13 12 0 8 -7 15 -15 15 -8 0 -14 4 -12 8 1
5 -37 49 -85 98 -122 125 -197 208 -198 217 0 4 -7 7 -16 7 -8 0 -12 4 -9 10
3 5 -3 15 -15 22 -11 7 -20 18 -20 25 0 7 -6 16 -14 20 -7 4 -44 44 -81 88
-37 44 -72 83 -77 86 -5 3 -9 9 -9 13 1 3 -10 18 -23 34 -28 31 -109 134 -146
183 -14 18 -33 41 -42 51 -10 10 -15 18 -12 18 3 0 -1 6 -8 14 -7 8 -31 39
-53 70 -22 31 -43 56 -48 56 -4 0 -6 4 -2 9 3 6 -3 14 -12 20 -10 6 -13 11 -8
11 6 0 6 3 0 8 -12 8 -145 198 -145 206 0 9 -74 110 -82 114 -5 2 -6 8 -2 13
3 5 0 9 -5 9 -6 0 -11 7 -11 15 0 9 -7 18 -15 21 -8 4 -13 10 -10 14 3 4 -4
19 -15 33 -11 14 -20 28 -20 31 0 3 -13 25 -30 49 -16 25 -30 50 -30 57 0 6
-6 8 -12 4 -7 -4 -10 -4 -6 1 8 9 -22 65 -35 65 -4 0 -5 5 -1 11 3 6 2 14 -3
18 -5 3 -27 38 -48 76 -21 39 -43 73 -49 77 -6 4 -8 8 -3 8 8 0 -72 152 -86
161 -5 3 -8 8 -6 10 5 9 -13 49 -22 49 -5 0 -8 3 -7 8 5 13 -24 72 -35 72 -6
0 -8 3 -4 6 3 4 -1 21 -10 38 -10 17 -18 33 -18 36 -1 3 -16 35 -33 72 -18 36
-32 71 -32 77 0 6 -4 11 -8 11 -5 0 -9 6 -9 13 0 6 -14 42 -32 79 -17 36 -31
68 -31 71 0 2 -10 26 -22 53 -12 27 -23 54 -24 59 -1 6 -16 43 -33 84 -17 41
-31 80 -31 87 0 8 -4 14 -8 14 -4 0 -9 10 -9 22 -1 13 -7 24 -12 26 -5 2 -7
10 -4 18 3 8 1 14 -4 14 -5 0 -9 8 -10 19 -1 10 -9 36 -19 57 -9 21 -18 44
-19 49 -3 20 -18 70 -24 80 -3 6 -6 13 -7 18 -1 4 -3 9 -4 12 -4 8 -7 17 -15
53 -4 17 -12 32 -18 32 -6 0 -8 3 -5 6 4 3 -3 36 -14 72 -11 37 -26 92 -35
122 -8 30 -19 60 -24 66 -5 6 -6 13 -4 16 3 3 0 18 -6 34 -7 16 -13 36 -14 45
-2 18 -24 107 -33 129 -3 8 -7 26 -9 40 -2 14 -8 39 -14 57 -5 17 -12 43 -15
57 -2 14 -6 36 -9 49 -3 12 -19 92 -36 177 -17 85 -34 162 -36 170 -6 16 -13
66 -14 90 0 8 -3 22 -6 30 -3 8 -7 29 -9 45 -2 17 -6 41 -8 55 -2 14 -7 52
-11 85 -8 63 -13 90 -15 90 -1 0 -3 24 -5 53 -2 29 -6 61 -10 71 -3 9 -8 51
-11 92 -3 41 -7 90 -10 109 -2 19 -6 69 -9 110 -3 41 -7 100 -10 130 -9 105
-18 296 -17 385 0 114 7 166 24 176 7 5 9 9 5 9 -13 0 33 71 68 102 40 38 121
80 165 85 19 3 37 7 39 9 10 9 142 -6 175 -20z m5031 -7190 c17 -2 49 -11 72
-19 22 -9 44 -13 47 -10 3 4 6 1 6 -5 0 -6 7 -9 15 -6 8 4 15 1 15 -7 0 -7 3
-10 6 -7 3 4 43 -7 90 -22 46 -16 84 -27 84 -25 0 2 16 -3 35 -11 20 -8 40
-12 45 -9 6 4 10 2 10 -4 0 -5 19 -13 43 -17 51 -10 41 -7 106 -27 30 -9 57
-15 59 -12 3 3 10 0 17 -5 7 -5 27 -12 46 -14 19 -3 34 -5 34 -6 0 -2 11 -5
110 -29 44 -11 82 -18 84 -16 2 3 12 0 22 -5 10 -6 37 -13 61 -16 64 -9 72
-11 88 -17 14 -5 104 -22 180 -33 19 -3 44 -7 55 -9 11 -2 40 -6 65 -9 25 -4
52 -8 60 -11 8 -2 38 -7 65 -10 28 -3 64 -7 80 -10 27 -5 68 -9 180 -20 22 -2
67 -6 100 -10 121 -12 345 -25 525 -30 80 -2 145 -4 145 -5 0 -1 23 -6 60 -13
11 -2 35 -11 52 -20 18 -10 36 -18 39 -20 39 -13 134 -155 134 -198 0 -10 4
-20 8 -23 5 -3 7 -40 6 -83 -3 -84 -5 -101 -17 -120 -5 -7 -5 -17 -2 -23 3 -5
2 -10 -3 -10 -5 0 -12 -10 -16 -22 -8 -31 -6 -29 -47 -70 -20 -20 -34 -40 -31
-43 3 -3 -2 -5 -11 -5 -9 0 -20 -8 -26 -17 -5 -10 -13 -17 -18 -16 -4 2 -30
-4 -57 -13 -71 -24 -347 -19 -741 12 -49 4 -105 8 -122 8 -18 1 -33 3 -33 6 0
3 -17 6 -38 7 -86 5 -178 15 -282 32 -87 13 -161 24 -185 26 -11 1 -29 4 -40
8 -11 3 -40 8 -65 11 -25 3 -56 8 -70 11 -14 3 -59 12 -100 20 -41 8 -86 18
-100 21 -14 3 -36 8 -50 10 -14 2 -81 17 -150 34 -69 17 -134 33 -145 34 -11
2 -27 6 -35 9 -8 4 -59 18 -113 32 -53 14 -108 30 -122 35 -14 5 -25 8 -25 5
0 -2 -16 3 -35 11 -20 8 -40 12 -45 9 -6 -4 -10 -1 -10 4 0 6 -11 11 -24 11
-14 0 -27 4 -30 9 -3 5 -23 12 -43 16 -54 12 -55 12 -88 26 -16 6 -35 13 -40
13 -23 2 -102 42 -125 63 -14 13 -29 23 -35 23 -6 0 -15 8 -20 18 -6 10 -21
36 -35 58 -14 21 -25 41 -26 44 0 3 -6 25 -13 50 -16 55 -17 155 -2 193 6 16
9 32 6 37 -3 5 -1 11 5 15 6 4 8 11 5 16 -4 5 -2 9 3 9 10 0 37 50 33 63 -1 5
2 6 6 4 5 -3 19 10 33 28 33 44 113 88 170 93 25 2 47 5 48 7 2 2 9 2 15 -1 7
-2 26 -6 42 -8z"/>
<path d="M7934 9850 c0 -1325 3 -2406 6 -2402 3 5 22 16 43 25 20 10 37 22 37
27 0 6 3 9 8 9 17 -3 30 2 50 21 12 12 22 18 22 15 0 -8 73 36 82 49 4 6 8 7
8 2 0 -5 9 -1 21 10 12 10 24 19 28 18 3 -1 15 4 26 11 62 38 168 95 176 95 5
0 9 5 9 10 0 6 4 10 10 10 5 0 44 20 86 45 41 25 80 45 85 45 5 0 9 5 9 11 0
5 4 8 9 4 5 -3 13 0 17 6 3 6 22 17 40 25 19 8 34 19 34 26 0 6 3 9 6 5 3 -3
39 14 79 38 41 24 76 41 79 37 3 -3 6 -1 6 5 0 6 14 16 30 23 17 7 30 17 30
22 0 5 4 7 9 4 5 -3 14 0 20 8 7 8 23 17 36 20 14 4 25 11 25 17 0 6 5 7 10 4
6 -3 13 1 16 9 3 9 10 14 14 11 4 -3 19 4 33 15 14 11 30 20 35 20 5 0 15 7
22 15 6 8 15 14 18 12 9 -2 105 54 114 68 4 5 8 6 8 1 0 -5 9 -1 20 9 11 10
20 14 20 9 0 -5 7 0 16 11 8 11 17 19 20 17 8 -5 74 30 74 39 0 5 3 8 8 7 9
-3 105 52 114 67 4 5 8 7 8 3 0 -4 22 6 49 22 26 17 53 30 60 30 6 0 11 3 11
8 0 4 18 15 40 25 22 9 40 21 40 27 0 5 3 9 8 8 12 -3 62 25 62 34 0 5 5 6 10
3 6 -3 10 -1 10 5 0 6 4 9 9 6 4 -3 16 3 26 14 10 11 22 17 26 14 5 -3 9 0 9
7 0 7 3 10 6 7 6 -7 104 49 149 84 16 13 25 16 20 8 -8 -13 -7 -13 11 0 10 8
21 17 24 20 3 3 31 18 63 35 31 16 57 33 57 38 0 4 4 6 9 2 5 -3 17 2 25 11 9
8 16 12 16 7 0 -4 7 1 16 12 8 11 16 19 17 17 3 -5 41 10 47 18 3 4 19 13 35
22 77 39 115 62 115 70 0 5 5 6 11 2 6 -3 14 -2 18 3 3 5 29 22 56 38 28 15
53 33 57 39 4 6 8 8 8 3 0 -4 18 4 39 17 21 14 42 22 45 19 3 -4 6 -1 6 4 0 6
21 22 48 34 26 13 53 29 60 36 8 7 18 11 23 8 5 -4 9 -1 9 4 0 6 7 11 15 11 8
0 15 4 15 9 0 5 12 14 28 20 15 6 43 20 62 31 69 41 75 44 83 42 4 -1 7 2 7 7
0 5 14 14 30 21 17 7 30 17 30 23 0 6 3 7 6 4 4 -4 19 2 34 13 16 11 33 20 39
20 6 0 11 5 11 12 0 6 3 8 6 5 4 -4 19 2 34 13 16 11 33 20 39 20 5 0 15 8 20
18 6 9 11 13 11 8 0 -4 11 -1 24 8 14 8 40 24 59 35 19 10 45 25 58 33 13 7
27 18 31 23 4 6 8 6 8 2 0 -5 13 1 29 12 16 12 32 21 36 21 4 0 14 8 22 18 8
9 11 11 7 3 -4 -8 14 0 40 18 25 18 60 37 76 43 17 5 27 15 23 21 -3 5 -1 7 5
3 6 -3 18 1 26 10 9 8 16 12 16 8 0 -4 8 0 18 8 9 9 27 19 40 22 12 4 22 12
22 17 0 5 6 9 14 9 7 0 19 7 26 15 7 8 16 13 20 10 5 -3 11 -1 14 4 4 5 31 22
61 37 51 26 52 28 32 39 -12 6 -34 19 -49 29 -16 10 -28 14 -28 10 0 -5 -5 -1
-11 9 -6 9 -14 15 -20 12 -5 -4 -9 -1 -9 4 0 6 -5 11 -11 11 -6 0 -22 9 -36
20 -14 11 -29 17 -34 14 -5 -3 -9 0 -9 5 0 6 -15 18 -32 26 -18 8 -51 26 -73
40 -22 14 -47 28 -55 32 -8 3 -28 15 -44 27 -19 12 -26 15 -21 5 4 -7 -4 -3
-18 10 -15 14 -27 20 -27 15 0 -5 -4 -4 -8 2 -4 6 -20 19 -37 28 -16 9 -45 25
-62 36 -18 11 -33 16 -33 12 0 -4 -5 1 -11 11 -6 9 -14 15 -20 12 -5 -4 -9 -1
-9 4 0 6 -5 11 -12 11 -6 0 -20 8 -31 18 -15 12 -19 13 -13 2 4 -8 0 -6 -8 4
-9 11 -16 17 -16 13 0 -5 -6 -3 -12 3 -30 25 -91 61 -95 56 -3 -3 -20 5 -37
18 -17 13 -51 34 -76 47 -25 13 -47 26 -50 29 -3 3 -18 12 -35 20 -16 8 -33
19 -37 25 -4 5 -8 6 -8 2 0 -4 -17 4 -37 18 -21 14 -44 25 -51 25 -7 0 -10 5
-6 12 5 7 2 9 -9 5 -9 -3 -18 0 -21 9 -3 8 -12 14 -19 14 -8 0 -26 9 -41 21
-14 11 -26 18 -26 14 0 -4 -7 1 -16 9 -8 9 -22 16 -30 16 -8 0 -14 4 -14 9 0
7 -36 22 -43 18 -1 -1 -13 8 -26 20 -13 12 -28 20 -33 17 -4 -3 -8 -2 -8 3 0
4 -21 19 -47 33 -27 13 -50 27 -53 30 -3 3 -18 12 -35 20 -16 8 -33 19 -37 25
-4 5 -8 6 -8 2 0 -4 -20 6 -44 22 -24 17 -46 27 -50 24 -3 -4 -6 -1 -6 5 0 7
-7 12 -15 12 -8 0 -15 5 -15 10 0 6 -6 10 -14 10 -7 0 -25 9 -40 21 -14 11
-26 17 -26 12 0 -4 -4 -3 -8 3 -4 6 -20 17 -37 26 -79 40 -121 64 -133 76 -8
7 -18 9 -24 6 -7 -4 -8 -2 -4 4 6 11 -6 16 -26 13 -5 0 -8 3 -8 9 0 5 -5 10
-11 10 -6 0 -24 9 -40 21 -16 11 -29 17 -29 12 0 -4 -4 -3 -8 3 -9 13 -82 57
-82 49 0 -3 -10 3 -22 15 -12 11 -28 20 -35 20 -7 0 -13 5 -13 11 0 5 -4 8 -9
5 -5 -3 -14 1 -21 9 -7 8 -18 15 -25 15 -7 0 -18 7 -25 15 -7 9 -15 13 -17 11
-3 -3 -14 4 -26 15 -11 10 -29 19 -39 19 -10 0 -18 5 -18 10 0 6 -7 10 -15 10
-8 0 -15 4 -15 9 0 8 -37 24 -52 22 -5 -1 -8 4 -8 9 0 10 -34 27 -54 28 -5 0
-12 4 -15 10 -3 5 -28 21 -54 35 -26 15 -59 34 -72 43 -14 9 -25 12 -25 8 0
-5 -4 -4 -8 2 -8 13 -88 62 -114 71 -10 3 -18 10 -18 15 0 5 -4 6 -10 3 -5 -3
-10 -2 -10 3 0 8 -28 20 -47 20 -3 0 -9 4 -12 9 -9 13 -201 124 -201 116 0 -4
-7 2 -15 13 -8 10 -15 15 -15 9 0 -7 -3 -7 -8 0 -9 13 -60 43 -94 56 -16 6
-28 15 -28 20 0 5 -5 9 -11 9 -6 0 -46 20 -88 45 -42 25 -79 46 -84 45 -4 0
-17 9 -29 20 -12 11 -25 20 -29 20 -4 0 -41 20 -83 45 -42 24 -76 43 -76 40 0
-3 -8 2 -17 10 -10 8 -20 14 -23 13 -3 -2 -12 3 -20 10 -29 24 -179 109 -185
104 -3 -3 -5 -1 -5 4 0 6 -16 16 -35 24 -19 8 -35 17 -35 22 0 4 -9 8 -19 8
-10 0 -21 7 -25 15 -3 8 -11 15 -19 15 -11 0 -13 -408 -13 -2410z"/>
</g>
</svg>
